﻿{
  "webroot": "wwwroot",
  "userSecretsId": "aspnet5-WebApplication-dfefef3b-67a2-4be0-af50-928cd1174a6e",
  "version": "1.0.0-*",

  "dependencies": {
    "EntityFramework.SqlServer": "7.0.0-beta4",
    "EntityFramework.Commands": "7.0.0-beta4",
    "Microsoft.AspNet.Mvc": "6.0.0-beta4",
    "Microsoft.AspNet.Mvc.TagHelpers": "6.0.0-beta4",
    "Microsoft.AspNet.Authentication.Cookies": "1.0.0-beta4",
    "Microsoft.AspNet.Authentication.Facebook": "1.0.0-beta4",
    "Microsoft.AspNet.Authentication.Google": "1.0.0-beta4",
    "Microsoft.AspNet.Authentication.MicrosoftAccount": "1.0.0-beta4",
    "Microsoft.AspNet.Authentication.Twitter": "1.0.0-beta4",
    "Microsoft.AspNet.Diagnostics": "1.0.0-beta4",
    "Microsoft.AspNet.Diagnostics.Entity": "7.0.0-beta4",
    "Microsoft.AspNet.Identity.EntityFramework": "3.0.0-beta4",
    "Microsoft.AspNet.Server.IIS": "1.0.0-beta4",
    "Microsoft.AspNet.Server.WebListener": "1.0.0-beta4",
    "Microsoft.AspNet.StaticFiles": "1.0.0-beta4",
    "Microsoft.AspNet.Tooling.Razor": "1.0.0-beta4",
    "Microsoft.Framework.ConfigurationModel.Json": "1.0.0-beta4",
    "Microsoft.Framework.ConfigurationModel.UserSecrets": "1.0.0-beta4",
    "Microsoft.Framework.CodeGenerators.Mvc": "1.0.0-beta4",
    "Microsoft.Framework.Logging": "1.0.0-beta4",
    "Microsoft.Framework.Logging.Console": "1.0.0-beta4",
    "Microsoft.VisualStudio.Web.BrowserLink.Loader": "14.0.0-beta4"
  },

  "commands": {
    "web": "Microsoft.AspNet.Hosting --server Microsoft.AspNet.Server.WebListener --server.urls http://localhost:5000",
    "gen": "Microsoft.Framework.CodeGeneration",
    "ef":  "EntityFramework.Commands"
  },

  "frameworks": {
    "dnx451": { },
    "dnxcore50": { }
  },

  "exclude": [
    "wwwroot",
    "node_modules",
    "bower_components"
  ],
  "publishExclude": [
    "node_modules",
    "bower_components",
    "**.xproj",
    "**.user",
    "**.vspscc"
  ],
  "scripts": {
    "postrestore": [ "npm install", "bower install" ],
    "prepare": [ "gulp copy" ]
  }
}
